<svg width="40" height="40" viewBox="0 0 40 40" fill="none" xmlns="http://www.w3.org/2000/svg">
<circle cx="20" cy="20" r="20" fill="#F2F2F2"/>
<path fill-rule="evenodd" clip-rule="evenodd" d="M25.315 12.9578C24.6917 12.8331 23.8498 12.74 23.3204 12.74C21.8867 12.74 21.7936 13.3633 21.7936 14.3607V16.1361H25.3774L25.065 19.8137H21.7936V31H17.3063V19.8137H15V16.1361H17.3063V13.8613C17.3063 10.7453 18.7708 9 22.4477 9C23.7252 9 24.6602 9.187 25.8753 9.43633L25.315 12.9578Z" fill="#003251"/>
</svg>
