<svg width="19" height="18" viewBox="0 0 19 18" fill="none" xmlns="http://www.w3.org/2000/svg">
<path d="M9.39131 6.1665H7.78418V9.16068H9.39131C9.98526 9.16068 10.4325 9.03141 10.7364 8.77287C11.0369 8.51433 11.1906 8.14748 11.1906 7.66883C11.1906 7.19018 11.0404 6.82334 10.7364 6.55781C10.4325 6.29927 9.98526 6.1665 9.39131 6.1665Z" fill="#7992A1"/>
<path d="M9.49999 0C4.52833 0 0.5 4.02834 0.5 9C0.5 13.9717 4.52833 18 9.49999 18C14.4717 18 18.5 13.9717 18.5 9C18.5 4.03183 14.4717 0 9.49999 0ZM13.5528 9.6743C13.1825 10.2403 12.6549 10.6735 11.9736 10.981C11.2923 11.2884 10.4888 11.4422 9.5629 11.4422H7.78105V14.1149H4.8882V3.88859H9.5629C10.4888 3.88859 11.2923 4.04231 11.9736 4.34977C12.6549 4.65722 13.1825 5.09395 13.5528 5.66343C13.9231 6.23292 14.1083 6.90373 14.1083 7.67236C14.1083 8.441 13.9231 9.10831 13.5528 9.6743Z" fill="#7992A1"/>
</svg>
