<svg width="25" height="18" viewBox="0 0 25 18" fill="none" xmlns="http://www.w3.org/2000/svg">
<path d="M0.970703 12.8522V16.6874C0.970703 17.4121 1.55863 18 2.28328 18H22.717C23.4416 18 24.0296 17.4121 24.0296 16.6874V12.8522C24.0296 12.1276 23.4416 11.5397 22.717 11.5397H2.28328C1.55863 11.5431 0.970703 12.131 0.970703 12.8522ZM7.83094 16.5165C6.52521 16.807 5.38354 15.6688 5.67408 14.3596C5.82106 13.6999 6.35088 13.1701 7.01058 13.0232C8.31632 12.7326 9.45798 13.8709 9.16744 15.18C9.02045 15.8397 8.49064 16.3729 7.83094 16.5165ZM12.9069 16.5165C11.6012 16.807 10.4595 15.6688 10.75 14.3596C10.897 13.6999 11.4268 13.1701 12.0865 13.0232C13.3923 12.7326 14.5339 13.8709 14.2434 15.18C14.0998 15.8397 13.5666 16.3729 12.9069 16.5165ZM17.9829 16.5165C16.6771 16.807 15.5355 15.6688 15.826 14.3596C15.973 13.6999 16.5028 13.1701 17.1625 13.0232C18.4682 12.7326 19.6099 13.8709 19.3194 15.18C19.1758 15.8397 18.6426 16.3729 17.9829 16.5165Z" fill="#7992A1"/>
<path d="M18.718 0H17.7951H7.2022H6.2793V0.379415C6.2793 0.693885 6.53566 0.950247 6.85013 0.950247H7.2022V9.4717C7.2022 10.0904 7.70467 10.5929 8.32335 10.5929H16.6739C17.2926 10.5929 17.7951 10.0904 17.7951 9.4717V0.950247H18.1471C18.4616 0.950247 18.718 0.693885 18.718 0.379415V0Z" fill="#7992A1"/>
</svg>
