<svg width="18" height="11" viewBox="0 0 18 11" fill="none" xmlns="http://www.w3.org/2000/svg">
<path d="M13.8978 5.69571H2.74873V0.552246H1.60343C0.716336 0.552246 0 1.26858 0 2.15567V10.8392H2.74873V8.44444H13.8978V10.8392H16.6465V8.44444H18V5.69571H16.6465H13.8978Z" fill="#7992A1"/>
<path d="M16.1759 3.05115H6.49292V5.17933H18.0001V4.87531C18.0001 3.86744 17.1838 3.05115 16.1759 3.05115Z" fill="#7992A1"/>
<path d="M4.74391 5.17922C5.33114 5.17922 5.81008 4.70444 5.81008 4.11305C5.81008 3.52165 5.33114 3.04688 4.74391 3.04688C4.15668 3.04688 3.67773 3.52582 3.67773 4.11305C3.67773 4.70028 4.15668 5.17922 4.74391 5.17922Z" fill="#7992A1"/>
</svg>
