<svg width="30" height="19" viewBox="0 0 30 19" fill="none" xmlns="http://www.w3.org/2000/svg">
<path d="M27.873 2.13208H1.53906V13.722H27.873V2.13208Z" fill="#7992A1"/>
<path d="M0 0V15.85H29.4157V0H0ZM28.6743 14.5195H0.737396V1.33052H28.6743V14.5195Z" fill="#7992A1"/>
<path d="M17.6375 16.4792H12.3114V17.7376H9.36182V19H12.3114H17.6375H20.5911V17.7376H17.6375V16.4792Z" fill="#7992A1"/>
</svg>
