<svg width="18" height="17" viewBox="0 0 18 17" fill="none" xmlns="http://www.w3.org/2000/svg">
<path d="M2 9L8 15.5L16 2" stroke="#7992A1" stroke-width="3" stroke-linecap="round" stroke-linejoin="round"/>
</svg>
